0.5875769724894594,
0.7110884305988576,
0.7463830881080653,
0.784142662219193,
0.8167885647861505,
0.5767077187078092,
0.684686387563709,
0.7442474985273074,
0.7627697919434269,
0.7887973966140577,
0.7998643479054647,
0.593414280810913,
NaN,
NaN,
0.7765809479886727,
0.8089493432719668,
0.8139347583683211,
0.8147674984936064,
0.8276311147101799,
0.8315350729269209,
0.8374874685111542,
0.8327860809882476,
0.8481151584541385,
0.845676998616512,
0.8548285575789787,
0.8576112171898375,
0.8566452106064094,
0.8605740788197118,
0.8582029797269157,
0.8701009168788307,
0.856469820016471,
0.861299981378446,
0.863676240817065,
0.8634795787754439,
0.8711591386408647,
0.8620360893660717,
0.8837828202470187,
0.8655264425463602,
0.864183519847716,
0.8689284675366409,
0.8677563741856626,
0.8698274323313373,
0.8831775110453914,
0.8783379246178379,
0.8887985660069675,
0.8772420547085055,
0.8852777252163918,
0.8750967637363776,
0.878734924822532,
0.8948625471219991,
0.8933257373473343,
0.8843280714787163,
0.88234979471899,
0.8858583251291074,
0.8863479514569877,
0.8952281375072825,
0.896903698009013,
0.8925186863406951,
0.9004720208042708,
0.8961048252657506,
0.906107429366451,
0.9028533087164712,
0.9037373054037539,
0.9077825227691764,
0.9063726734345617,
0.9077146883203139,
0.9082835553392955,
0.9073763781788564,
0.9143814688534596,
0.905402562336635,
0.9201640639420628,
0.9144213068678788,
0.9120898900510649,
0.9115127166936471,
0.9188021079790417,
0.9053925793756004,
0.9068713609072252,
0.910039470818342,
0.9029040725946734,
0.902910908747624,
0.911462144242792,
0.9122552891220826,
0.9144422126070709,
0.9034585217643832,
0.9123956373302348,
0.9070477534769422,
0.9107347107975728,
0.9131308981759503,
0.9141221485670887,
0.9157755103355032,
0.9182449020624601,
0.9062491872474289,
0.9117843083929843,
0.9112348440573865,
0.9136921417090785,
0.9158101664758402,
0.9204211632193778,
0.911554442825014,
0.9168602780723758,
0.9255244487941154,
0.9238902069170719,
0.9220189313687281,
0.9256858189074879,
0.9181477272143082,
0.9208062536820895,
0.9197130051819729,
0.9100415515680227,
0.9220394033415531,
0.930479556266205,
0.9284927598024515,
0.9303163045678179,
0.9302473602507387,
0.9257613817223043,
0.9294560667172863,
0.9354146164858023,
0.9297807069437012,
0.9392465594046706,
0.9454965816396584,
0.9327183226732297,
0.9352082536869644,
0.9447738967049609,
0.9428270085221614,
0.9346291039384192,
0.9410619981639092,
0.9284513438003783,
0.9366730491173958,
0.9382072240394858,
0.9317480035127315,
0.9354377802575102,
0.9295831024265905,
0.9351598455953797,
0.9330318281726815,
0.9344864801223391,
0.9329014376994037,
0.9467837005229067,
0.9387341934667649,
0.9378342417613078,
0.9556704380036766,
0.949323611030265,
0.941125094106803,
0.944557202213463,
0.9415163456753929,
0.9463730568724995,
0.9439622382834569,
0.954992156734288,
0.9420718465654448,
0.9422718704467783,
0.9442522210565414,
0.9410411510200948,
0.9426805464599274,
0.9463975618903345,
0.9427417538846324,
0.9402893362943452,
0.941742242225221,
0.9501081126129306,
0.9400840383981057,
0.9432137396556426,
0.9389412188463517,
0.9414768310685002,
0.9444588107470683,
0.9448576542048975,
0.9503264357674108,
0.9446570115754506,
0.9374795250986321,
0.9435042592590352,
0.9397398158987039,
0.9439457815951445,
0.9467845089857767,
0.94613008685929,
0.9386873350178278,
0.9490617365150443,
0.9511624902947406,
0.9571895568127258,
0.9311880671187128,
0.9394634393026898,
0.9355108726765679,
0.9553437026586535,
0.9362138603654173,
0.9526058348544757,
0.9478047659784437,
0.9392601559164772,
0.9515383537922222,
0.9338502471910681,
0.9310785939360838,
0.9508280651109783,
0.9473827572268371,
0.9467158876163407,
0.9452191956274549,
0.9455017431399255,
0.9518766183815706,
0.939504908718137,
0.937052924180076,
0.9445180127821488,
0.9497487755911898,
0.9440710815790413,
0.9478617813739061,
0.9398778170187165,
0.9420347852659918,
0.941610687857164,
0.9464533417654764,
0.9395950155789446,
0.9311617815785077,
0.938501680237738,
0.9433166245076765,
0.9474550865508681,
0.9481619071064472,
0.9472344664647013,
0.9387864010724158,
0.9452421630102574,
0.9444898005859708,
0.9420813770780362,
0.9417377888000587,
0.9509650475819211,
0.9382737008347044,
0.9497300272934922,
0.9454143343617036,
0.9422410655751086,
0.9455466360606654,
0.9404941015263258,
0.9582181211705142,
0.944548051245813,
0.9451829367170768,
0.936068125223046,
0.9534422410650588,
0.9455180796485675,
0.9450160683778409,
0.9495621947597577,
0.9348982964875557,
0.9379819036816938,
0.9400904269322646,
0.9346319558181765,
0.9481321711930758,
0.9445078312546901,
0.9469272571360889,
0.9401589382558643,
0.9419008559777106,
0.9404251634335283,
0.940117718576885,
0.9453360448818475,
0.9481415035020808,
0.9456725013162983,
0.9466269825096396,
0.9543930293376287,
0.9429241139307866,
0.944299248747786,
0.9443570507139034,
0.9418939888730264,
0.9490544140018647,
0.9325923978766627,
0.9444941397650871,
0.948255566160561,
0.9457728975218842,
0.9425058248606795,
0.948859573339376,
0.9418932544321774,
0.9440965492419516,
0.9492655355978872,
0.9522764802446535,
0.9434475806699942,
0.9477248859845429,
0.9405360194414425,
0.9449573820146319,
0.9510551218575063,
0.9516304192141394,
0.9427594423652959,
0.9319193672804829,
0.9489558598448511,
0.9594051455109687,
0.9437007064135315,
0.9403641787509364,
0.9329673162286505,
0.9327488746634225,
0.9456345167864484,
0.9519817075673402,
0.9472924190452607,
0.933038181508579,
0.9422308040419876,
0.9526329109349169,
0.9560952513255152,
0.9513748991008437,
0.9324711192487777,
0.9519395369349904,
0.9542773513220905,
0.9507363807364405,
0.9359399620812653,
0.9360459581605692,
0.9496515239274171,
0.9430324412699423,
0.9435814448234513,
0.946978707079841,
0.9417993508700596,
0.9503848081616114,
0.9482312335225426,
0.9489864758519491,
0.9348147603169624,
0.9454175363451088,
0.9554347470198923,
0.9422219494893871,
0.9541307584467026,
0.9325257051892509,
0.9398100712345092,
0.9350514558418885,
0.9376974168273244,
0.9337098072354965,
0.9497821879040387,
0.944063990092925,
0.9460388467696111,
0.9497232411968288,
0.9530136231903122,
0.9457209080200374,
0.9497067215223362,
0.9504059931990898,
0.932594845534865,
0.9512993544592513,
0.9500875250950334,
0.9471412052519481,
0.9434025762383148,
0.9431282226902462,
0.9534111886561317,
0.9465769671261398,
0.9534074106227297,
0.9452414615170319,
0.9480575674607107,
0.9544131434446641,
0.9550950673981241,
0.94444012872477,
0.9382280368364362,
0.9465103198196876,
0.9413017235285313,
0.9436784427249438,
0.9379859697308686,
0.9510762507590167,
0.9495193328084446,
0.9491914428305839,
0.939695107612969,
0.9456654421087152,
0.944575979512884,
0.9497860614883085,
0.9475444679974265,
0.9447910544213001,
0.9473639190535118,
0.9474199695708683,
0.9348502778717794,
0.949952935534491,
0.9541288150989405,
0.936126964895087,
0.9471429921448754,
0.9405019443592454,
0.935875519498542,
0.9455414526490459,
0.9522370874048224,
0.9395395380178119,
0.9417562109548598,
0.9472860320912164,
0.9408728074314101,
0.9396724384747899,
0.9353031737072132,
0.9472720894149157,
0.9443454253760406,
0.9328237143354571,
0.9406114494051329,
0.9388773356239386,
0.9542471421911358,
0.9408252760487269,
0.9514769252164672,
0.9520555174825855,
0.9475835117756596,
0.940542906289966,
0.9428552375492409,
0.9343999608957635,
0.9517136609955046,
0.9509501259611157,
0.9406239038741526,
0.9524363720041744,
0.9431784785758333,
0.9332882331056439,
0.9466580741328766,
0.944801826218673,
0.9485137787196308,
0.9397882529695303,
0.9478552183203872,
0.9346970024207502,
0.9523839923871332,
0.9499998960376476,
0.9515899060524435,
0.9430656165218001,
0.9418296391840006,
0.945603045980305,
0.9341682337476681,
0.9510859756760734,
0.9468883435205759,
0.9405058825926405,
0.9461029189898359,
0.9469384672597587,
0.9425095859781425,
0.9509505229581978,
0.9472321436684004,
0.9451831390248762,
0.940081076486085,
0.9430889578467326,
0.9583320513078979,
0.9352206016811293,
0.9515889877087418,
0.9401264832353354,
0.9442734037189209,
0.9444404530477364,
0.9445094969519419,
0.9407336158878773,
0.9451198096682247,
0.9469439079081613,
0.9439585574566324,
0.9548203650054714,
0.9407016080517652,
0.9379453925049387,
0.9346900393602757,
0.9402587696257683,
0.9415678799403024,
0.9392688424110318,
0.9348497954088724,
0.9534815579794546,
0.9461341127008229,
0.9291907301264354,
0.9532075616929945,
0.9427479078815446,
0.9509693743940175,
0.9424635280368531,
0.9391786231524171,
0.9383046736513481,
0.9471105426114056,
0.9365725263449838,
0.9422369608242295,
0.9521113421927191,
0.9435234567127392,
0.9380568081648684,
0.9493385689185829,
0.9383919071154904,
0.9497253450601321,
0.9435962869410741,
0.9548971117032042,
0.9439379904965819,
0.9438639167973232,
0.9546624469200836,
0.9436293192110563,
0.9378924610648605,
0.9422801842892133,
0.9449586239331008,
0.9434432653182473,
0.9550993339118932,
0.93958745290306,
0.9402435942422988,
0.9407044586389187,
0.931701877279678,
0.9431906759690613,
0.9396289524905103,
0.9456350882358963,
0.9436001564360234,
0.9449174946336741,
0.9476455154171268,
0.9530686450419786,
0.9334737121891571,
0.9561125132470752,
0.9349577302019886,
0.9459989320584822,
0.9348551354894411,
0.9556236267569961,
0.9556395640956814,
0.9345220348822041,
0.9475499073169386,
0.9500806477667777,
0.9483522351321113,
0.9574589113336422,
0.9505656154858342,
0.9440670959933608,
0.943078856884668,
0.9351023916943546,
0.9422442308867022,
0.9445035085015238,
0.933942720232117,
0.9531490191250174,
0.9384154561693563,
0.9472017383077165,
0.9461048966649835,
0.937607206500509,
0.9419285670040947,
0.9421494960947336,
0.9457171072653164,
0.9434252880627433,
0.9477804171290132,
0.9369844403834554,
0.948449762873189,
0.9443370700056087,
0.941162238944863,
0.9391368211258774,
0.9491412413485121,
0.9429859294318043,
0.9496001612423379,
0.935922495877169,
0.9396821841998704,
0.941914356248344,
0.9393156625137422,
0.9495061386934506,
0.9388192728373858,
0.9561792240219296,
0.94983213588437,
0.9364208611595104,
0.9323072982563625,
0.9413604434441228,
0.9461658428058203,
0.94117831300462,
0.9405728493001235,
0.9350173583909037,
0.9530052475008118,
0.9435404596136189,
0.9422172064775199,
0.9487140146370914,
0.9399062018260597,
0.9538727770042326,
0.9434836068107078,
0.943899777536024,
0.9528358419714463,
0.9307191210287177,
0.9516793964619484,
0.949651305747096,
0.9429745463256353,
0.9451580274312721,
0.9367645164866013,
0.9501892788151122,
0.9341133144251831,
0.947779152371115,
0.9484558712613418,
0.9471830259199345,
0.9465940169363745,
0.9473382557349527,
0.9447147862982019,
0.9468022378885707,
0.9440166635332448,
0.9515612789262835,
0.9476359128015207,
0.9472059391856291,
0.9463978009982035,
0.940611737370605,
0.9481315010345795,
0.9444573270785841,
0.938693238846492,
0.947267685770762,
0.9405325339910178,
0.9423854689954128,
0.9372100253613195,
0.9544556405122264,
0.940823827600938,
0.948139395557651,
0.9363773169940524,
0.9519531586225475,
0.953452175034017,
0.9436870854110643,
0.9405542681245678,
0.9452507181033178,
0.9482517340254988,
0.9388098396700144,
0.952735477652044,
0.9391789402229088,
0.94891132904487,
0.9443570417668329,
0.9444655677398589,
0.9463967704941163,
0.9515396116252818,
0.9459483457211165,
0.9403708277837833,
0.9417116309416903,
0.9475150514057847,
0.9522937200381033,
0.9433333505647057,
0.9440509459437899,
0.9431690774790061,
0.9459701738589378,
0.9450604562490926,
0.958485030394945,
0.9347494568258096,
0.9481248990512756,
0.9360176941159685,
0.9464395419650584,
0.9404106912262145,
0.9435259659720291,
0.9488006052128115,
0.9475420169871552,
0.9474557512164097,
0.9399667909104638,
0.9485427160859298,
0.9556198030011913,
0.9284914006903776,
0.9411669132170327,
0.9473757290179996,
0.9416279904638537,
0.951043176704155,
0.9495887477055951,
0.9413244432911958,
0.9401603118389664,
0.9517312726531122,
0.9388340931080973,
0.9428556773309816,
0.9470541607208344,
0.9396331787943223,
0.9516943605676221,
0.9350381757402804,
0.9452354340055309,
0.9401485435404646,
0.9438839425419345,
0.9492707436468092,
0.9324398216838767,
0.9382939148464707,
0.941942026213828,
0.943905260143689,
0.9367625767110064,
0.9491291210300434,
0.9432873861497708,
0.9396716273710659,
0.93394888305618,
0.9528756627445039,
0.9448110250842984,
0.9451009082126824,
0.9389831496552435,
0.9445587164283776,
0.9541351556289501,
0.9397086320601261,
0.947284056926419,
0.9420876318687381,
0.9492050910438902,
0.9461073117989082,
0.9377550502033936,
0.9542465444745076,
0.9482450931484425,
0.9405260905468603,
0.9367882546802142,
0.9416790687706776,
0.946356550328934,
0.9517794782138165,
0.9422037633970513,
0.9456402255633033,
0.9421454275529212,
0.9460959932224969,
0.9467986825635157,
0.9503709265588582,
0.944440499097969,
0.9489311758513148,
0.9422189474505419,
0.9385815133112699,
0.9460553125327371,
0.9496827949760496,
0.9486414503124041,
0.9379578566707764,
0.9410011063320716,
0.9439021419851908,
0.9405945622088212,
0.9464593415669963,
0.9458339743510126,
0.9531722599283592,
0.9472981421141555,
0.9352487833692973,
0.9497352033701386,
0.9468085486476095,
0.9511015361592476,
0.9440357797147793,
0.9419312407298961,
0.9313068093117108,
0.9557739439132769,
0.9440878108745846,
0.9468636313511112,
0.9365876967876716,
0.9413048435511768,
0.9511539051544621,
0.9487772557395447,
0.9494525541661758,
0.9583728645632923,
0.9376956419743749,
0.9380141775815224,
0.9505224123231621,
0.9358282436761263,
0.9370084073316555,
0.946399475578909,
0.9499072712453238,
0.9381792324759828,
0.9469457120689319,
0.9435879823614448,
0.9508370951228958,
0.9418825964828491,
0.9440862656626601,
0.9547322514535326,
0.9387835167419837,
0.9458856684788582,
0.9556795747386745,
0.9517780927005003,
0.9395472971723865,
0.9404968429930872,
0.9477830086631133,
0.9520786041588866,
0.9389608091210281,
0.9443745933453266,
0.9512078936856925,
0.9433604766882699,
0.9467478438808914,
0.9457799324271303,
0.9435841639246101,
0.9496511502308655,
0.9532350260764489,
0.946582961989969,
0.9408713101690594,
0.9493567890728829,
0.9466062485013877,
0.942144526917067,
0.9399163304458219,
0.9382804014185078,
0.9447144658172671,
0.9353984624510625,
0.9413820006881499,
0.9493005468913641,
0.9460625260671247,
0.9468940713478823,
0.9430848951969678,
0.9385146609688817,
0.9462832178198042,
0.9479674770100811,
0.9515417415414293,
0.9330656381486858,
0.9457027658129072,
0.935736781692116,
0.9446210699794162,
0.9417739396090781,
0.9438760018419353,
0.9483636166799585,
0.9296236397286503,
0.9404207871625698,
0.9462337398485946,
0.9401599029616082,
0.9380058443104883,
0.9486039930609741,
0.943569374771683,
0.9395906052318219,
0.9339311184385412,
0.9535719904077162,
0.951271226551207,
0.9492659256779419,
0.952991111033241,
0.9339175675225966,
0.9402006556838161,
0.9450856319348125,
0.9443319411627755,
0.9449183868543907,
0.9354929171851143,
0.9225392420378782,
0.9393484387221557,
0.9319627734560405,
0.9473237047003772,
0.9332967597174777,
0.9444581787761964,
0.9459939801783619,
0.9457815895423035,
0.9475601711176345,
0.9403377830815739,
0.9357878581525563,
0.9426969753976451,
0.939216875012388,
0.9510070222952196,
0.9464708579343244,
0.9435943772253594,
0.9466132129585239,
0.9337577958608344,
0.933059858382102,
0.9505192361581257,
0.9446372794681678,
0.9446362791196868,
0.9480218662060226,
0.9514459855138727,
0.9395363092418723,
0.9487255929059097,
0.930937644944336,
0.9374717335747351,
0.955238649363279,
0.9407807564287657,
0.9466862303218179,
0.9424889994398822,
0.9500191515217531,
0.9459267183309568,
0.9486813826540803,
0.94510160916151,
0.938098238858776,
0.9479904963354177,
0.941946390280443,
0.9345945258897459,
0.9536704361909608,
0.9453338032059472,
0.9375772000654646,
0.9397435498072048,
0.9402496870635896,
0.937162646252399,
0.9458377357323029,
0.9328338877039976,
0.9394091049577307,
0.940738684620974,
0.9462162498480063,
0.9482130662841063,
0.952468959372651,
0.9415601968496454,
0.9405226981211237,
0.9455642517651155,
0.9483953466398469,
0.9427537832877129,
0.9463908905483583,
0.9442184704916328,
0.9454228004634159,
0.9454248700136426,
0.943365874159583,
0.9460682734552691,
0.938548694405847,
0.9490307692036316,
0.9543465155162423,
0.9375023202460292,
0.94261908641568,
0.9500524903239418,
0.9530922000384335,
0.9437469781231741,
0.9417269353334649,
0.9420990038769568,
0.9472219281281227,
0.9464857358804406,
0.9433504181967034,
0.9532491074197388,
0.9429232036918545,
0.9465418237628882,
0.9450264342397332,
0.9473671457048232,
0.9461667823531335,
0.9504939921622031,
0.9504160574281718,
0.9387186264633129,
0.9422210379643251,
0.9464774174747506,
0.9335000719797361,
0.9464430490256583,
0.9440221034172948,
0.9477842601535852,
0.9462298196327533,
0.9527448544007107,
0.9361789646063013,
0.9487113562892431,
0.9419102787074032,
0.9499462526514424,
0.948244066533558,
0.9516008728890403,
0.9419418651346831,
0.9397507542437649,
0.9393212233346417,
0.9332362958395379,
0.9539281467555446,
0.9516271658432419,
0.9404495808541937,
0.9457393684380562,
0.9422248123105595,
0.9444831936898084,
0.9521269366406585,
0.9446088387182496,
0.9438701621171843,
0.9381442371234405,
0.9479825876664549,
0.941976103872218,
0.9387643297749949,
0.9484916225133645,
0.9454224388262784,
0.9441777419727763,
0.9476811609415938,
0.9379179641971643,
0.9506304840247266,
0.9477191244276838,
0.9488145462695197,
0.9422884804672483,
0.9474959298771458,
0.9479610743191875,
0.9436374689088572,
0.9480719459618072,
0.943122103529646,
0.9389617546058298,
0.9500140564831966,
0.9424536145464327,
0.9420025762012864,
0.9400592025335665,
0.9531926687404447,
0.9377559804348568,
0.9475386899301546,
0.9470369292197841,
0.9407660022434564,
0.9338334567847961,
0.936432745353573,
0.9339526979250892,
0.9501598170346989,
0.9264435549643867,
0.9551525616247766,
0.9332341939073078,
0.9389245535926918,
0.946551983690041,
0.9291090799465453,
0.9424392892577751,
0.9446961976585819,
0.935795384740922,
0.9525537219581897,
0.9347870747363994,
0.9444113010285374,
0.9430746252777849,
0.9510475906773064,
0.9457974875622611,
0.949103593073138,
0.9466206542535869,
0.9353863586092629,
0.9385245702127807,
0.9465400718537711,
0.9427766596158181,
0.9500770548554732,
0.9398080944110841,
0.9531974780389256,
0.9378253116112796,
0.9450697596672347,
0.9412769509112207,
0.9471354707336523,
0.9504518448410925,
0.9413821470605416,
0.935309227699051,
0.9535478561324047,
0.9517328139692063,
0.9379377622428028,
0.9444490284281463,
0.9427654862381825,
0.9348669866742424,
0.9446128819163653,
0.9443054644640515,
0.9505741936401961,
0.93455213270315,
0.943542172460084,
0.9390697784983769,
0.9563450717401355,
0.9474663891574241,
0.9309564358249942,
0.9539024551491366,
0.952825996439278,
0.9439729605001353,
0.9418169390534633,
0.9480699807372551,
0.9305234805703063,
0.9428483348879673,
0.9476072796120448,
0.9438797687936471,
0.9545888206236408,
0.942470097028347,
0.9455656664339378,
0.9451713932864655,
0.9573442301657497,
0.9527192740068355,
0.946931674648956,
0.9522485546114886,
0.9481220086505833,
0.9406212419250296,
0.9369145233615289,
0.9458403104971446,
0.9450371648926654,
0.940408163212106,
0.9430456618784894,
0.9387272367803539,
0.9392085483448449,
0.940507986497463,
0.9310448120288143,
0.94602451716333,
0.9337877834877167,
0.9366583998273391,
0.9352675721223411,
0.9443467826115196,
0.9394068693519191,
0.9437510755059464,
0.9478879606373593,
0.9510785452289133,
0.94358068592557,
0.9423833494827147,
0.9551727439678536,
0.9453954975032824,
0.9415624916729803,
0.9450174265158349,
0.9383981243813279,
0.9403644836273065,
0.9469614054070575,
0.9426385270258347,
0.9374546820970957,
0.9437024705422649,
0.940886272010534,
0.9493199611556031,
0.9391027923061955,
0.9484517126982484,
0.945982907150816,
0.9433592628802316,
0.9528436384255892,
0.9562752041000985,
0.940147867365042,
0.9460103695468824,
0.9468369675360766,
0.9367290497011029,
0.932248558799572,
0.9406223963322569,
0.9419496757599956,
0.9518382695425828,
0.9458276765768651,
0.9466053797231821,
0.9496962571488154,
0.9339752559186055,
0.946077339245928,
0.9480853743257472,
0.9431131171151074,
